final/result.txt
Chronologic VCS simulator copyright 1991-2012
Contains Synopsys proprietary information.
Compiler version F-2011.12-SP1; Runtime version F-2011.12-SP1;  Dec  2 12:55 2013
hello world
                   0 row =   x, col =  x, addr =      x, rd_data = xxxxxxxx, storage=xxxxxxxxxxxxxxxxxxxxxxxxxxxxxxxxxxxxxxxxxxxxxxxxxxxxxxxxxxxxxxxxxxxxxxxxxxxxxxxxxxxxxxxxxxxxxxxxxxxxxxxxxxxxxxxxxxxxxxxxxxxxxxxxxxxxxxxxxxxxxxxxxxxxxxxxxxxxxxxxxxxxxxxxxxxxxxxxxxxxxxxxxxxxxxxxxxxxxxxxxxxxxxxxxxxxxxxxxxxxxxxxxxxxxxxxxxxxxxxxxxxxxxxxxxxxxxxxxxxxxxxxxxxxxxxxxxxxxxxxxxxxxxxxxxxxxxxxxxxxxxxxxxxxxxxxxxxxxxxxxxxxxxxxxxxxxxxxxxxxxxxxxxxxxxxxxxxxxxxxxxxxxxxxxxxxxxxxxxxxxxxxxxxxxxxxxxxxxxxxxxxxxxxxxxxxxxxxxxxxxxxxxxxxxxxxxxxxxxxxxxxxxxxxxxxxxxxxxxxxxxxxxxxxxxxxxxxxxxxxxxxxxxxxxxxxxxxxxxxxxxxxxxxxxxxx
                 200 row =   0, col =  0, addr =     65, rd_data = xxxxxxxx, storage=00000000000000000000000000000000000000000000000000000000000000000000000000000000000000000000000000000000000000000000000000000000000000000000000000000000000000000000000000000000000000000000000000000000000000000000000000000000000000000000000000000000000000000000000000000000000000000000000000000000000000000000000000000000000000000000000000000000000000000000000000000000000000000000000000000000000000000000000000000000000000000000000000000000000000000000000000000000000000000000000000000000000000000000000000000000
                 206 row =   0, col =  0, addr =     65, rd_data = 41434143, storage=00000000000000000000000000000000000000000000000000000000000000000000000000000000000000000000000000000000000000000000000000000000000000000000000000000000000000000000000000000000000000000000000000000000000000000000000000000000000000000000000000000000000000000000000000000000000000000000000000000000000000000000000000000000000000000000000000000000000000000000000000000000000000000000000000000000000000000000000000000000000000000000000000000000000000000000000000000000000000000000000000000000000000000000000000000000
                 215 row =   0, col =  0, addr =     65, rd_data = 41434143, storage=00000000000000000000000000000000000000000000000000000000000000000000000000000000000000000000000000000000000000000000000000000000000000000000000000000000000000000000000000000000000000000000000000000000000000000000000000000000000000000000000000000000000000000000000000000000000000000000000000000000000000000000000000000000000000000000000000000000000000000000000000000000000000000000000000000000000000000000000000000000000000000000000000000000000000000000000000000000000000000000000000000000000000000000000043414341
                 220 row =   0, col =  1, addr =     66, rd_data = 41434143, storage=00000000000000000000000000000000000000000000000000000000000000000000000000000000000000000000000000000000000000000000000000000000000000000000000000000000000000000000000000000000000000000000000000000000000000000000000000000000000000000000000000000000000000000000000000000000000000000000000000000000000000000000000000000000000000000000000000000000000000000000000000000000000000000000000000000000000000000000000000000000000000000000000000000000000000000000000000000000000000000000000000000000000000000000000043414341
                 235 row =   0, col =  1, addr =     66, rd_data = 41434143, storage=00000000000000000000000000000000000000000000000000000000000000000000000000000000000000000000000000000000000000000000000000000000000000000000000000000000000000000000000000000000000000000000000000000000000000000000000000000000000000000000000000000000000000000000000000000000000000000000000000000000000000000000000000000000000000000000000000000000000000000000000000000000000000000000000000000000000000000000000000000000000000000000000000000000000000000000000000000000000000000000000000000000000000004341434143414341
                 240 row =   0, col =  2, addr =     67, rd_data = 41434143, storage=00000000000000000000000000000000000000000000000000000000000000000000000000000000000000000000000000000000000000000000000000000000000000000000000000000000000000000000000000000000000000000000000000000000000000000000000000000000000000000000000000000000000000000000000000000000000000000000000000000000000000000000000000000000000000000000000000000000000000000000000000000000000000000000000000000000000000000000000000000000000000000000000000000000000000000000000000000000000000000000000000000000000000004341434143414341
                 255 row =   0, col =  2, addr =     67, rd_data = 41434143, storage=00000000000000000000000000000000000000000000000000000000000000000000000000000000000000000000000000000000000000000000000000000000000000000000000000000000000000000000000000000000000000000000000000000000000000000000000000000000000000000000000000000000000000000000000000000000000000000000000000000000000000000000000000000000000000000000000000000000000000000000000000000000000000000000000000000000000000000000000000000000000000000000000000000000000000000000000000000000000000000000000000000000434143414341434143414341
                 260 row =   0, col =  3, addr =     68, rd_data = 41434143, storage=00000000000000000000000000000000000000000000000000000000000000000000000000000000000000000000000000000000000000000000000000000000000000000000000000000000000000000000000000000000000000000000000000000000000000000000000000000000000000000000000000000000000000000000000000000000000000000000000000000000000000000000000000000000000000000000000000000000000000000000000000000000000000000000000000000000000000000000000000000000000000000000000000000000000000000000000000000000000000000000000000000000434143414341434143414341
                 275 row =   0, col =  3, addr =     68, rd_data = 41434143, storage=00000000000000000000000000000000000000000000000000000000000000000000000000000000000000000000000000000000000000000000000000000000000000000000000000000000000000000000000000000000000000000000000000000000000000000000000000000000000000000000000000000000000000000000000000000000000000000000000000000000000000000000000000000000000000000000000000000000000000000000000000000000000000000000000000000000000000000000000000000000000000000000000000000000000000000000000000000000000000000000000043414341434143414341434143414341
                 280 row =   1, col =  0, addr =     85, rd_data = 41434143, storage=00000000000000000000000000000000000000000000000000000000000000000000000000000000000000000000000000000000000000000000000000000000000000000000000000000000000000000000000000000000000000000000000000000000000000000000000000000000000000000000000000000000000000000000000000000000000000000000000000000000000000000000000000000000000000000000000000000000000000000000000000000000000000000000000000000000000000000000000000000000000000000000000000000000000000000000000000000000000000000000000043414341434143414341434143414341
                 295 row =   1, col =  0, addr =     85, rd_data = 41434143, storage=00000000000000000000000000000000000000000000000000000000000000000000000000000000000000000000000000000000000000000000000000000000000000000000000000000000000000000000000000000000000000000000000000000000000000000000000000000000000000000000000000000000000000000000000000000000000000000000000000000000000000000000000000000000000000000000000000000000000000000000000000000000000000000000000000000000000000000000000000000000000000000000000000000000000000000000000000000000000000004341434143414341434143414341434143414341
                 300 row =   1, col =  1, addr =     86, rd_data = 41434143, storage=00000000000000000000000000000000000000000000000000000000000000000000000000000000000000000000000000000000000000000000000000000000000000000000000000000000000000000000000000000000000000000000000000000000000000000000000000000000000000000000000000000000000000000000000000000000000000000000000000000000000000000000000000000000000000000000000000000000000000000000000000000000000000000000000000000000000000000000000000000000000000000000000000000000000000000000000000000000000000004341434143414341434143414341434143414341
                 315 row =   1, col =  1, addr =     86, rd_data = 41434143, storage=00000000000000000000000000000000000000000000000000000000000000000000000000000000000000000000000000000000000000000000000000000000000000000000000000000000000000000000000000000000000000000000000000000000000000000000000000000000000000000000000000000000000000000000000000000000000000000000000000000000000000000000000000000000000000000000000000000000000000000000000000000000000000000000000000000000000000000000000000000000000000000000000000000000000000000000000000000000434143414341434143414341434143414341434143414341
                 320 row =   1, col =  2, addr =     87, rd_data = 41434143, storage=00000000000000000000000000000000000000000000000000000000000000000000000000000000000000000000000000000000000000000000000000000000000000000000000000000000000000000000000000000000000000000000000000000000000000000000000000000000000000000000000000000000000000000000000000000000000000000000000000000000000000000000000000000000000000000000000000000000000000000000000000000000000000000000000000000000000000000000000000000000000000000000000000000000000000000000000000000000434143414341434143414341434143414341434143414341
                 335 row =   1, col =  2, addr =     87, rd_data = 41434143, storage=00000000000000000000000000000000000000000000000000000000000000000000000000000000000000000000000000000000000000000000000000000000000000000000000000000000000000000000000000000000000000000000000000000000000000000000000000000000000000000000000000000000000000000000000000000000000000000000000000000000000000000000000000000000000000000000000000000000000000000000000000000000000000000000000000000000000000000000000000000000000000000000000000000000000000000000000043414341434143414341434143414341434143414341434143414341
                 340 row =   1, col =  3, addr =     88, rd_data = 41434143, storage=00000000000000000000000000000000000000000000000000000000000000000000000000000000000000000000000000000000000000000000000000000000000000000000000000000000000000000000000000000000000000000000000000000000000000000000000000000000000000000000000000000000000000000000000000000000000000000000000000000000000000000000000000000000000000000000000000000000000000000000000000000000000000000000000000000000000000000000000000000000000000000000000000000000000000000000000043414341434143414341434143414341434143414341434143414341
                 355 row =   1, col =  3, addr =     88, rd_data = 41434143, storage=00000000000000000000000000000000000000000000000000000000000000000000000000000000000000000000000000000000000000000000000000000000000000000000000000000000000000000000000000000000000000000000000000000000000000000000000000000000000000000000000000000000000000000000000000000000000000000000000000000000000000000000000000000000000000000000000000000000000000000000000000000000000000000000000000000000000000000000000000000000000000000000000000000000000000004341434143414341434143414341434143414341434143414341434143414341
                 360 row =   2, col =  0, addr =    105, rd_data = 41434143, storage=00000000000000000000000000000000000000000000000000000000000000000000000000000000000000000000000000000000000000000000000000000000000000000000000000000000000000000000000000000000000000000000000000000000000000000000000000000000000000000000000000000000000000000000000000000000000000000000000000000000000000000000000000000000000000000000000000000000000000000000000000000000000000000000000000000000000000000000000000000000000000000000000000000000000000004341434143414341434143414341434143414341434143414341434143414341
                 375 row =   2, col =  0, addr =    105, rd_data = 41434143, storage=00000000000000000000000000000000000000000000000000000000000000000000000000000000000000000000000000000000000000000000000000000000000000000000000000000000000000000000000000000000000000000000000000000000000000000000000000000000000000000000000000000000000000000000000000000000000000000000000000000000000000000000000000000000000000000000000000000000000000000000000000000000000000000000000000000000000000000000000000000000000000000000000000000000434143414341434143414341434143414341434143414341434143414341434143414341
                 380 row =   2, col =  1, addr =    106, rd_data = 41434143, storage=00000000000000000000000000000000000000000000000000000000000000000000000000000000000000000000000000000000000000000000000000000000000000000000000000000000000000000000000000000000000000000000000000000000000000000000000000000000000000000000000000000000000000000000000000000000000000000000000000000000000000000000000000000000000000000000000000000000000000000000000000000000000000000000000000000000000000000000000000000000000000000000000000000000434143414341434143414341434143414341434143414341434143414341434143414341
                 395 row =   2, col =  1, addr =    106, rd_data = 41434143, storage=00000000000000000000000000000000000000000000000000000000000000000000000000000000000000000000000000000000000000000000000000000000000000000000000000000000000000000000000000000000000000000000000000000000000000000000000000000000000000000000000000000000000000000000000000000000000000000000000000000000000000000000000000000000000000000000000000000000000000000000000000000000000000000000000000000000000000000000000000000000000000000000000043414341434143414341434143414341434143414341434143414341434143414341434143414341
                 400 row =   2, col =  2, addr =    107, rd_data = 41434143, storage=00000000000000000000000000000000000000000000000000000000000000000000000000000000000000000000000000000000000000000000000000000000000000000000000000000000000000000000000000000000000000000000000000000000000000000000000000000000000000000000000000000000000000000000000000000000000000000000000000000000000000000000000000000000000000000000000000000000000000000000000000000000000000000000000000000000000000000000000000000000000000000000000043414341434143414341434143414341434143414341434143414341434143414341434143414341
                 415 row =   2, col =  2, addr =    107, rd_data = 41434143, storage=00000000000000000000000000000000000000000000000000000000000000000000000000000000000000000000000000000000000000000000000000000000000000000000000000000000000000000000000000000000000000000000000000000000000000000000000000000000000000000000000000000000000000000000000000000000000000000000000000000000000000000000000000000000000000000000000000000000000000000000000000000000000000000000000000000000000000000000000000000000000000004341434143414341434143414341434143414341434143414341434143414341434143414341434143414341
                 420 row =   2, col =  3, addr =    108, rd_data = 41434143, storage=00000000000000000000000000000000000000000000000000000000000000000000000000000000000000000000000000000000000000000000000000000000000000000000000000000000000000000000000000000000000000000000000000000000000000000000000000000000000000000000000000000000000000000000000000000000000000000000000000000000000000000000000000000000000000000000000000000000000000000000000000000000000000000000000000000000000000000000000000000000000000004341434143414341434143414341434143414341434143414341434143414341434143414341434143414341
                 435 row =   2, col =  3, addr =    108, rd_data = 41434143, storage=00000000000000000000000000000000000000000000000000000000000000000000000000000000000000000000000000000000000000000000000000000000000000000000000000000000000000000000000000000000000000000000000000000000000000000000000000000000000000000000000000000000000000000000000000000000000000000000000000000000000000000000000000000000000000000000000000000000000000000000000000000000000000000000000000000000000000000000000000000000434143414341434143414341434143414341434143414341434143414341434143414341434143414341434143414341
                 440 row =   3, col =  0, addr =    125, rd_data = 41434143, storage=00000000000000000000000000000000000000000000000000000000000000000000000000000000000000000000000000000000000000000000000000000000000000000000000000000000000000000000000000000000000000000000000000000000000000000000000000000000000000000000000000000000000000000000000000000000000000000000000000000000000000000000000000000000000000000000000000000000000000000000000000000000000000000000000000000000000000000000000000000000434143414341434143414341434143414341434143414341434143414341434143414341434143414341434143414341
                 455 row =   3, col =  0, addr =    125, rd_data = 41434143, storage=00000000000000000000000000000000000000000000000000000000000000000000000000000000000000000000000000000000000000000000000000000000000000000000000000000000000000000000000000000000000000000000000000000000000000000000000000000000000000000000000000000000000000000000000000000000000000000000000000000000000000000000000000000000000000000000000000000000000000000000000000000000000000000000000000000000000000000000000043414341434143414341434143414341434143414341434143414341434143414341434143414341434143414341434143414341
                 460 row =   3, col =  1, addr =    126, rd_data = 41434143, storage=00000000000000000000000000000000000000000000000000000000000000000000000000000000000000000000000000000000000000000000000000000000000000000000000000000000000000000000000000000000000000000000000000000000000000000000000000000000000000000000000000000000000000000000000000000000000000000000000000000000000000000000000000000000000000000000000000000000000000000000000000000000000000000000000000000000000000000000000043414341434143414341434143414341434143414341434143414341434143414341434143414341434143414341434143414341
                 475 row =   3, col =  1, addr =    126, rd_data = 41434143, storage=00000000000000000000000000000000000000000000000000000000000000000000000000000000000000000000000000000000000000000000000000000000000000000000000000000000000000000000000000000000000000000000000000000000000000000000000000000000000000000000000000000000000000000000000000000000000000000000000000000000000000000000000000000000000000000000000000000000000000000000000000000000000000000000000000000000000000004341434143414341434143414341434143414341434143414341434143414341434143414341434143414341434143414341434143414341
                 480 row =   3, col =  2, addr =    127, rd_data = 41434143, storage=00000000000000000000000000000000000000000000000000000000000000000000000000000000000000000000000000000000000000000000000000000000000000000000000000000000000000000000000000000000000000000000000000000000000000000000000000000000000000000000000000000000000000000000000000000000000000000000000000000000000000000000000000000000000000000000000000000000000000000000000000000000000000000000000000000000000000004341434143414341434143414341434143414341434143414341434143414341434143414341434143414341434143414341434143414341
                 495 row =   3, col =  2, addr =    127, rd_data = 41434143, storage=00000000000000000000000000000000000000000000000000000000000000000000000000000000000000000000000000000000000000000000000000000000000000000000000000000000000000000000000000000000000000000000000000000000000000000000000000000000000000000000000000000000000000000000000000000000000000000000000000000000000000000000000000000000000000000000000000000000000000000000000000000000000000000000000000000000434143414341434143414341434143414341434143414341434143414341434143414341434143414341434143414341434143414341434143414341
                 500 row =   3, col =  3, addr =    128, rd_data = 41434143, storage=00000000000000000000000000000000000000000000000000000000000000000000000000000000000000000000000000000000000000000000000000000000000000000000000000000000000000000000000000000000000000000000000000000000000000000000000000000000000000000000000000000000000000000000000000000000000000000000000000000000000000000000000000000000000000000000000000000000000000000000000000000000000000000000000000000000434143414341434143414341434143414341434143414341434143414341434143414341434143414341434143414341434143414341434143414341
                 515 row =   3, col =  3, addr =    128, rd_data = 41434143, storage=00000000000000000000000000000000000000000000000000000000000000000000000000000000000000000000000000000000000000000000000000000000000000000000000000000000000000000000000000000000000000000000000000000000000000000000000000000000000000000000000000000000000000000000000000000000000000000000000000000000000000000000000000000000000000000000000000000000000000000000000000000000000000000000000043414341434143414341434143414341434143414341434143414341434143414341434143414341434143414341434143414341434143414341434143414341
                 520 row =   4, col =  0, addr =    145, rd_data = 41434143, storage=00000000000000000000000000000000000000000000000000000000000000000000000000000000000000000000000000000000000000000000000000000000000000000000000000000000000000000000000000000000000000000000000000000000000000000000000000000000000000000000000000000000000000000000000000000000000000000000000000000000000000000000000000000000000000000000000000000000000000000000000000000000000000000000000043414341434143414341434143414341434143414341434143414341434143414341434143414341434143414341434143414341434143414341434143414341
                 535 row =   4, col =  0, addr =    145, rd_data = 41434143, storage=00000000000000000000000000000000000000000000000000000000000000000000000000000000000000000000000000000000000000000000000000000000000000000000000000000000000000000000000000000000000000000000000000000000000000000000000000000000000000000000000000000000000000000000000000000000000000000000000000000000000000000000000000000000000000000000000000000000000000000000000000000000000000004341434143414341434143414341434143414341434143414341434143414341434143414341434143414341434143414341434143414341434143414341434143414341
                 540 row =   4, col =  1, addr =    146, rd_data = 41434143, storage=00000000000000000000000000000000000000000000000000000000000000000000000000000000000000000000000000000000000000000000000000000000000000000000000000000000000000000000000000000000000000000000000000000000000000000000000000000000000000000000000000000000000000000000000000000000000000000000000000000000000000000000000000000000000000000000000000000000000000000000000000000000000000004341434143414341434143414341434143414341434143414341434143414341434143414341434143414341434143414341434143414341434143414341434143414341
                 555 row =   4, col =  1, addr =    146, rd_data = 41434143, storage=00000000000000000000000000000000000000000000000000000000000000000000000000000000000000000000000000000000000000000000000000000000000000000000000000000000000000000000000000000000000000000000000000000000000000000000000000000000000000000000000000000000000000000000000000000000000000000000000000000000000000000000000000000000000000000000000000000000000000000000000000000000434143414341434143414341434143414341434143414341434143414341434143414341434143414341434143414341434143414341434143414341434143414341434143414341
                 560 row =   4, col =  2, addr =    147, rd_data = 41434143, storage=00000000000000000000000000000000000000000000000000000000000000000000000000000000000000000000000000000000000000000000000000000000000000000000000000000000000000000000000000000000000000000000000000000000000000000000000000000000000000000000000000000000000000000000000000000000000000000000000000000000000000000000000000000000000000000000000000000000000000000000000000000000434143414341434143414341434143414341434143414341434143414341434143414341434143414341434143414341434143414341434143414341434143414341434143414341
                 575 row =   4, col =  2, addr =    147, rd_data = 41434143, storage=00000000000000000000000000000000000000000000000000000000000000000000000000000000000000000000000000000000000000000000000000000000000000000000000000000000000000000000000000000000000000000000000000000000000000000000000000000000000000000000000000000000000000000000000000000000000000000000000000000000000000000000000000000000000000000000000000000000000000000000000043414341434143414341434143414341434143414341434143414341434143414341434143414341434143414341434143414341434143414341434143414341434143414341434143414341
                 580 row =   4, col =  3, addr =    148, rd_data = 41434143, storage=00000000000000000000000000000000000000000000000000000000000000000000000000000000000000000000000000000000000000000000000000000000000000000000000000000000000000000000000000000000000000000000000000000000000000000000000000000000000000000000000000000000000000000000000000000000000000000000000000000000000000000000000000000000000000000000000000000000000000000000000043414341434143414341434143414341434143414341434143414341434143414341434143414341434143414341434143414341434143414341434143414341434143414341434143414341
                 595 row =   4, col =  3, addr =    148, rd_data = 41434143, storage=00000000000000000000000000000000000000000000000000000000000000000000000000000000000000000000000000000000000000000000000000000000000000000000000000000000000000000000000000000000000000000000000000000000000000000000000000000000000000000000000000000000000000000000000000000000000000000000000000000000000000000000000000000000000000000000000000000000000000004341434143414341434143414341434143414341434143414341434143414341434143414341434143414341434143414341434143414341434143414341434143414341434143414341434143414341
                 600 row =   5, col =  0, addr =    165, rd_data = 41434143, storage=00000000000000000000000000000000000000000000000000000000000000000000000000000000000000000000000000000000000000000000000000000000000000000000000000000000000000000000000000000000000000000000000000000000000000000000000000000000000000000000000000000000000000000000000000000000000000000000000000000000000000000000000000000000000000000000000000000000000000004341434143414341434143414341434143414341434143414341434143414341434143414341434143414341434143414341434143414341434143414341434143414341434143414341434143414341
                 615 row =   5, col =  0, addr =    165, rd_data = 41434143, storage=00000000000000000000000000000000000000000000000000000000000000000000000000000000000000000000000000000000000000000000000000000000000000000000000000000000000000000000000000000000000000000000000000000000000000000000000000000000000000000000000000000000000000000000000000000000000000000000000000000000000000000000000000000000000000000000000000000000434143414341434143414341434143414341434143414341434143414341434143414341434143414341434143414341434143414341434143414341434143414341434143414341434143414341434143414341
                 620 row =   5, col =  1, addr =    166, rd_data = 41434143, storage=00000000000000000000000000000000000000000000000000000000000000000000000000000000000000000000000000000000000000000000000000000000000000000000000000000000000000000000000000000000000000000000000000000000000000000000000000000000000000000000000000000000000000000000000000000000000000000000000000000000000000000000000000000000000000000000000000000000434143414341434143414341434143414341434143414341434143414341434143414341434143414341434143414341434143414341434143414341434143414341434143414341434143414341434143414341
                 635 row =   5, col =  1, addr =    166, rd_data = 41434143, storage=00000000000000000000000000000000000000000000000000000000000000000000000000000000000000000000000000000000000000000000000000000000000000000000000000000000000000000000000000000000000000000000000000000000000000000000000000000000000000000000000000000000000000000000000000000000000000000000000000000000000000000000000000000000000000000000000043414341434143414341434143414341434143414341434143414341434143414341434143414341434143414341434143414341434143414341434143414341434143414341434143414341434143414341434143414341
                 640 row =   5, col =  2, addr =    167, rd_data = 41434143, storage=00000000000000000000000000000000000000000000000000000000000000000000000000000000000000000000000000000000000000000000000000000000000000000000000000000000000000000000000000000000000000000000000000000000000000000000000000000000000000000000000000000000000000000000000000000000000000000000000000000000000000000000000000000000000000000000000043414341434143414341434143414341434143414341434143414341434143414341434143414341434143414341434143414341434143414341434143414341434143414341434143414341434143414341434143414341
                 655 row =   5, col =  2, addr =    167, rd_data = 41434143, storage=00000000000000000000000000000000000000000000000000000000000000000000000000000000000000000000000000000000000000000000000000000000000000000000000000000000000000000000000000000000000000000000000000000000000000000000000000000000000000000000000000000000000000000000000000000000000000000000000000000000000000000000000000000000000000004341434143414341434143414341434143414341434143414341434143414341434143414341434143414341434143414341434143414341434143414341434143414341434143414341434143414341434143414341434143414341
                 660 row =   5, col =  3, addr =    168, rd_data = 41434143, storage=00000000000000000000000000000000000000000000000000000000000000000000000000000000000000000000000000000000000000000000000000000000000000000000000000000000000000000000000000000000000000000000000000000000000000000000000000000000000000000000000000000000000000000000000000000000000000000000000000000000000000000000000000000000000000004341434143414341434143414341434143414341434143414341434143414341434143414341434143414341434143414341434143414341434143414341434143414341434143414341434143414341434143414341434143414341
                 675 row =   5, col =  3, addr =    168, rd_data = 41434143, storage=00000000000000000000000000000000000000000000000000000000000000000000000000000000000000000000000000000000000000000000000000000000000000000000000000000000000000000000000000000000000000000000000000000000000000000000000000000000000000000000000000000000000000000000000000000000000000000000000000000000000000000000000000000000434143414341434143414341434143414341434143414341434143414341434143414341434143414341434143414341434143414341434143414341434143414341434143414341434143414341434143414341434143414341434143414341
                 680 row =   6, col =  0, addr =    185, rd_data = 41434143, storage=00000000000000000000000000000000000000000000000000000000000000000000000000000000000000000000000000000000000000000000000000000000000000000000000000000000000000000000000000000000000000000000000000000000000000000000000000000000000000000000000000000000000000000000000000000000000000000000000000000000000000000000000000000000434143414341434143414341434143414341434143414341434143414341434143414341434143414341434143414341434143414341434143414341434143414341434143414341434143414341434143414341434143414341434143414341
                 695 row =   6, col =  0, addr =    185, rd_data = 41434143, storage=00000000000000000000000000000000000000000000000000000000000000000000000000000000000000000000000000000000000000000000000000000000000000000000000000000000000000000000000000000000000000000000000000000000000000000000000000000000000000000000000000000000000000000000000000000000000000000000000000000000000000000000000043414341434143414341434143414341434143414341434143414341434143414341434143414341434143414341434143414341434143414341434143414341434143414341434143414341434143414341434143414341434143414341434143414341
                 700 row =   6, col =  1, addr =    186, rd_data = 41434143, storage=00000000000000000000000000000000000000000000000000000000000000000000000000000000000000000000000000000000000000000000000000000000000000000000000000000000000000000000000000000000000000000000000000000000000000000000000000000000000000000000000000000000000000000000000000000000000000000000000000000000000000000000000043414341434143414341434143414341434143414341434143414341434143414341434143414341434143414341434143414341434143414341434143414341434143414341434143414341434143414341434143414341434143414341434143414341
                 715 row =   6, col =  1, addr =    186, rd_data = 41434143, storage=00000000000000000000000000000000000000000000000000000000000000000000000000000000000000000000000000000000000000000000000000000000000000000000000000000000000000000000000000000000000000000000000000000000000000000000000000000000000000000000000000000000000000000000000000000000000000000000000000000000000000004341434143414341434143414341434143414341434143414341434143414341434143414341434143414341434143414341434143414341434143414341434143414341434143414341434143414341434143414341434143414341434143414341434143414341
                 720 row =   6, col =  2, addr =    187, rd_data = 41434143, storage=00000000000000000000000000000000000000000000000000000000000000000000000000000000000000000000000000000000000000000000000000000000000000000000000000000000000000000000000000000000000000000000000000000000000000000000000000000000000000000000000000000000000000000000000000000000000000000000000000000000000000004341434143414341434143414341434143414341434143414341434143414341434143414341434143414341434143414341434143414341434143414341434143414341434143414341434143414341434143414341434143414341434143414341434143414341
                 735 row =   6, col =  2, addr =    187, rd_data = 41434143, storage=00000000000000000000000000000000000000000000000000000000000000000000000000000000000000000000000000000000000000000000000000000000000000000000000000000000000000000000000000000000000000000000000000000000000000000000000000000000000000000000000000000000000000000000000000000000000000000000000000000000434143414341434143414341434143414341434143414341434143414341434143414341434143414341434143414341434143414341434143414341434143414341434143414341434143414341434143414341434143414341434143414341434143414341434143414341
                 740 row =   6, col =  3, addr =    188, rd_data = 41434143, storage=00000000000000000000000000000000000000000000000000000000000000000000000000000000000000000000000000000000000000000000000000000000000000000000000000000000000000000000000000000000000000000000000000000000000000000000000000000000000000000000000000000000000000000000000000000000000000000000000000000000434143414341434143414341434143414341434143414341434143414341434143414341434143414341434143414341434143414341434143414341434143414341434143414341434143414341434143414341434143414341434143414341434143414341434143414341
                 755 row =   6, col =  3, addr =    188, rd_data = 41434143, storage=00000000000000000000000000000000000000000000000000000000000000000000000000000000000000000000000000000000000000000000000000000000000000000000000000000000000000000000000000000000000000000000000000000000000000000000000000000000000000000000000000000000000000000000000000000000000000000000000043414341434143414341434143414341434143414341434143414341434143414341434143414341434143414341434143414341434143414341434143414341434143414341434143414341434143414341434143414341434143414341434143414341434143414341434143414341
                 760 row =   7, col =  0, addr =    205, rd_data = 41434143, storage=00000000000000000000000000000000000000000000000000000000000000000000000000000000000000000000000000000000000000000000000000000000000000000000000000000000000000000000000000000000000000000000000000000000000000000000000000000000000000000000000000000000000000000000000000000000000000000000000043414341434143414341434143414341434143414341434143414341434143414341434143414341434143414341434143414341434143414341434143414341434143414341434143414341434143414341434143414341434143414341434143414341434143414341434143414341
                 775 row =   7, col =  0, addr =    205, rd_data = 41434143, storage=00000000000000000000000000000000000000000000000000000000000000000000000000000000000000000000000000000000000000000000000000000000000000000000000000000000000000000000000000000000000000000000000000000000000000000000000000000000000000000000000000000000000000000000000000000000000000004341434143414341434143414341434143414341434143414341434143414341434143414341434143414341434143414341434143414341434143414341434143414341434143414341434143414341434143414341434143414341434143414341434143414341434143414341434143414341
                 780 row =   7, col =  1, addr =    206, rd_data = 41434143, storage=00000000000000000000000000000000000000000000000000000000000000000000000000000000000000000000000000000000000000000000000000000000000000000000000000000000000000000000000000000000000000000000000000000000000000000000000000000000000000000000000000000000000000000000000000000000000000004341434143414341434143414341434143414341434143414341434143414341434143414341434143414341434143414341434143414341434143414341434143414341434143414341434143414341434143414341434143414341434143414341434143414341434143414341434143414341
                 795 row =   7, col =  1, addr =    206, rd_data = 41434143, storage=00000000000000000000000000000000000000000000000000000000000000000000000000000000000000000000000000000000000000000000000000000000000000000000000000000000000000000000000000000000000000000000000000000000000000000000000000000000000000000000000000000000000000000000000000000000434143414341434143414341434143414341434143414341434143414341434143414341434143414341434143414341434143414341434143414341434143414341434143414341434143414341434143414341434143414341434143414341434143414341434143414341434143414341434143414341
                 800 row =   7, col =  2, addr =    207, rd_data = 41434143, storage=00000000000000000000000000000000000000000000000000000000000000000000000000000000000000000000000000000000000000000000000000000000000000000000000000000000000000000000000000000000000000000000000000000000000000000000000000000000000000000000000000000000000000000000000000000000434143414341434143414341434143414341434143414341434143414341434143414341434143414341434143414341434143414341434143414341434143414341434143414341434143414341434143414341434143414341434143414341434143414341434143414341434143414341434143414341
                 815 row =   7, col =  2, addr =    207, rd_data = 41434143, storage=00000000000000000000000000000000000000000000000000000000000000000000000000000000000000000000000000000000000000000000000000000000000000000000000000000000000000000000000000000000000000000000000000000000000000000000000000000000000000000000000000000000000000000000000043414341434143414341434143414341434143414341434143414341434143414341434143414341434143414341434143414341434143414341434143414341434143414341434143414341434143414341434143414341434143414341434143414341434143414341434143414341434143414341434143414341
                 820 row =   7, col =  3, addr =    208, rd_data = 41434143, storage=00000000000000000000000000000000000000000000000000000000000000000000000000000000000000000000000000000000000000000000000000000000000000000000000000000000000000000000000000000000000000000000000000000000000000000000000000000000000000000000000000000000000000000000000043414341434143414341434143414341434143414341434143414341434143414341434143414341434143414341434143414341434143414341434143414341434143414341434143414341434143414341434143414341434143414341434143414341434143414341434143414341434143414341434143414341
                 835 row =   7, col =  3, addr =    208, rd_data = 41434143, storage=00000000000000000000000000000000000000000000000000000000000000000000000000000000000000000000000000000000000000000000000000000000000000000000000000000000000000000000000000000000000000000000000000000000000000000000000000000000000000000000000000000000000000004341434143414341434143414341434143414341434143414341434143414341434143414341434143414341434143414341434143414341434143414341434143414341434143414341434143414341434143414341434143414341434143414341434143414341434143414341434143414341434143414341434143414341
                 840 row =   8, col =  0, addr =    225, rd_data = 41434143, storage=00000000000000000000000000000000000000000000000000000000000000000000000000000000000000000000000000000000000000000000000000000000000000000000000000000000000000000000000000000000000000000000000000000000000000000000000000000000000000000000000000000000000000004341434143414341434143414341434143414341434143414341434143414341434143414341434143414341434143414341434143414341434143414341434143414341434143414341434143414341434143414341434143414341434143414341434143414341434143414341434143414341434143414341434143414341
                 855 row =   8, col =  0, addr =    225, rd_data = 41434143, storage=00000000000000000000000000000000000000000000000000000000000000000000000000000000000000000000000000000000000000000000000000000000000000000000000000000000000000000000000000000000000000000000000000000000000000000000000000000000000000000000000000000000434143414341434143414341434143414341434143414341434143414341434143414341434143414341434143414341434143414341434143414341434143414341434143414341434143414341434143414341434143414341434143414341434143414341434143414341434143414341434143414341434143414341434143414341
                 860 row =   8, col =  1, addr =    226, rd_data = 41434143, storage=00000000000000000000000000000000000000000000000000000000000000000000000000000000000000000000000000000000000000000000000000000000000000000000000000000000000000000000000000000000000000000000000000000000000000000000000000000000000000000000000000000000434143414341434143414341434143414341434143414341434143414341434143414341434143414341434143414341434143414341434143414341434143414341434143414341434143414341434143414341434143414341434143414341434143414341434143414341434143414341434143414341434143414341434143414341
                 875 row =   8, col =  1, addr =    226, rd_data = 41434143, storage=00000000000000000000000000000000000000000000000000000000000000000000000000000000000000000000000000000000000000000000000000000000000000000000000000000000000000000000000000000000000000000000000000000000000000000000000000000000000000000000000043414341434143414341434143414341434143414341434143414341434143414341434143414341434143414341434143414341434143414341434143414341434143414341434143414341434143414341434143414341434143414341434143414341434143414341434143414341434143414341434143414341434143414341434143414341
                 880 row =   8, col =  2, addr =    227, rd_data = 41434143, storage=00000000000000000000000000000000000000000000000000000000000000000000000000000000000000000000000000000000000000000000000000000000000000000000000000000000000000000000000000000000000000000000000000000000000000000000000000000000000000000000000043414341434143414341434143414341434143414341434143414341434143414341434143414341434143414341434143414341434143414341434143414341434143414341434143414341434143414341434143414341434143414341434143414341434143414341434143414341434143414341434143414341434143414341434143414341
